…
17 peixes não foram identificados na variável ordem.

**Questão 02.**

``` r
dados_prm %>% 
  select(ordem , peso_g)
```

    ## # A tibble: 99,370 x 2
    ##    ordem         peso_g
    ##    <chr>          <dbl>
    ##  1 Siluriformes      35
    ##  2 Siluriformes      35
    ##  3 Siluriformes      25
    ##  4 Characiformes    265
    ##  5 Siluriformes     160
    ##  6 Characiformes    130
    ##  7 Siluriformes      25
    ##  8 Characiformes     65
    ##  9 Cichliformes      15
    ## 10 Characiformes    250
    ## # ... with 99,360 more rows
…
``` r
dados_cheque %>% view()
```

``` r
dados_cheque %>% 
  select(rendimento_liquido) %>% 
  arrange(desc(rendimento_liquido))   
```

    ## # A tibble: 161,767 x 1
    ##    rendimento_liquido
    ##                 <dbl>
    ##  1           7267672.
    ##  2           2874516.
    ##  3            683094.
    ##  4            660934.
    ##  5            511424.
    ##  6            477756.
    ##  7            422214.
    ##  8            421106.
    ##  9            398141.
    ## 10            389054.
    ## # ... with 161,757 more rows

O maior rendimento líquido foi 7267672.

**Questão 06.**

``` r
dados_cheque %>% 
  distinct(cargo)
```

    ## # A tibble: 749 x 1
    ##    cargo                                   
    ##    <chr>                                   
    ##  1 Ministro do Superior Tribunal de Justiça
    ##  2 Juiz Instrutor no STJ                   
    ##  3 Juiz Auxiliar no STJ                    
    ##  4 JUIZ-AUDITOR                            
    ##  5 JUIZ-AUDITOR SUBSTITUTO                 
    ##  6 MINISTRO DO SUPERIOR TRIBUNAL MILITAR   
    ##  7 JUIZ-AUDITOR CORREGEDOR                 
    ##  8 CONSELHEIRO                             
    ##  9 JUIZ AUXILIAR                           
    ## 10 CONSELHEIRO/PRESIDENTE                  
    ## # ... with 739 more rows
…
    ## # A tibble: 1 x 1
    ##       n
    ##   <int>
    ## 1  1136

1136 magistrados ganham acima de R$100.000,00

``` r
dados_cheque %>% 
  distinct(tribunal)
```

    ## # A tibble: 128 x 1
    ##    tribunal                                                                
    ##    <chr>                                                                   
    ##  1 Superior Tribunal de Justiça                                            
    ##  2 Superior Tribunal Militar                                               
    ##  3 Conselho Nacional de Justiça                                            
    ##  4 Tribunal Superior do Trabalho / Conselho Superior da Justiça do Trabalho
    ##  5 Tribunal Superior Eleitoral                                             
    ##  6 Conselho da Justiça Federal                                             
    ##  7 Tribunal Regional Federal da 1a Região                                  
    ##  8 Tribunal Regional Federal da 2a Região                                  
    ##  9 Tribunal Regional Federal da 3a Região                                  
    ## 10 Tribunal Regional Federal da 4a Região                                  
    ## # ... with 118 more rows
…
``` r
dados_cheque %>% 
  group_by(tribunal) %>% 
  select(rendimento_liquido) %>% 
  drop_na() %>% 
  summarise(
    media_rendimento = mean(rendimento_liquido))
```

    ## Adding missing grouping variables: `tribunal`

    ## # A tibble: 128 x 2
    ##    tribunal                            media_rendimento
    ##    <chr>                                          <dbl>
    ##  1 Conselho da Justiça Federal                    1328.
    ##  2 Conselho Nacional de Justiça                   6333.
    ##  3 Superior Tribunal de Justiça                  28823.
    ##  4 Superior Tribunal Militar                     30118.
    ##  5 Tribunal de Justiça da Bahia                  34935.
    ##  6 Tribunal de Justiça da Paraíba                26949.
    ##  7 Tribunal de Justiça de Alagoas                37809.
    ##  8 Tribunal de Justiça de Goiás                  30591.
    ##  9 Tribunal de Justiça de Minas Gerais           46560.
    ## 10 Tribunal de Justiça de Pernambuco             22337.
    ## # ... with 118 more rows
…
``` r
dados_prouni %>% view()
```

**(a)**

Integral.

``` r
dados_prouni %>% 
  select(nome)
```

    ## # A tibble: 41,447 x 1
    ##    nome      
    ##    <chr>     
    ##  1 Medicina  
    ##  2 Enfermagem
    ##  3 Medicina  
    ##  4 Psicologia
    ##  5 Medicina  
    ##  6 Medicina  
    ##  7 Medicina  
    ##  8 Medicina  
    ##  9 Medicina  
    ## 10 Medicina  
    ## # ... with 41,437 more rows

``` r
dados_prouni %>% 
  distinct(nome)
```

    ## # A tibble: 296 x 1
    ##    nome                    
    ##    <chr>                   
    ##  1 Medicina                
    ##  2 Enfermagem              
    ##  3 Psicologia              
    ##  4 Engenharia de Computação
    ##  5 Educação Física         
    ##  6 Direito                 
    ##  7 Engenharia de Produção  
    ##  8 Fisioterapia            
    ##  9 Administração           
    ## 10 Engenharia Civil        
    ## # ... with 286 more rows
…
**Questão 08.**

``` r
dados_prouni %>% 
  group_by(uf_busca) %>% 
  summarise(
    n = n()
  ) %>% 
  arrange(desc(n)) 
```

    ## # A tibble: 27 x 2
    ##    uf_busca     n
    ##    <chr>    <int>
    ##  1 SP       11533
    ##  2 MG        4175
    ##  3 PR        3918
    ##  4 RS        3060
    ##  5 BA        2505
    ##  6 SC        2195
    ##  7 RJ        1442
    ##  8 GO        1278
    ##  9 PA        1201
    ## 10 PE        1148
    ## # ... with 17 more rows

O estadado da Bahia ocupa a 5ª posição.

**Questão 09.**

``` r
dados_prouni %>% 
  distinct(nome)
```

    ## # A tibble: 296 x 1
    ##    nome                    
    ##    <chr>                   
    ##  1 Medicina                
    ##  2 Enfermagem              
    ##  3 Psicologia              
    ##  4 Engenharia de Computação
    ##  5 Educação Física         
    ##  6 Direito                 
    ##  7 Engenharia de Produção  
    ##  8 Fisioterapia            
    ##  9 Administração           
    ## 10 Engenharia Civil        
    ## # ... with 286 more rows
…
``` r
dados_prouni %>% 
  group_by(nome) %>% 
  select(curso_busca) %>% 
  drop_na() %>% 
  summarise(
    n = n())
```

    ## Adding missing grouping variables: `nome`

    ## # A tibble: 296 x 2
    ##    nome                                      n
    ##    <chr>                                 <int>
    ##  1 Administração                          2754
    ##  2 Administração de Empresas                 1
    ##  3 Administração de Recursos Humanos         7
    ##  4 Administração Pública                    21
    ##  5 Agroindústria                             1
    ##  6 Agronegócio                             143
    ##  7 Agronomia                               118
    ##  8 Agropecuária                              1
    ##  9 Alimentos                                 4
    ## 10 Análise e Desenvolvimento de Sistemas  1008
    ## # ... with 286 more rows
…
